^C:\USERS\TIMOH\SOURCE\REPOS\2D\MATH.CPP|C:\USERS\TIMOH\SOURCE\REPOS\2D\SOURCE.CPP
C:\USERS\TIMOH\SOURCE\REPOS\2D\DEBUG\VC142.PDB
C:\USERS\TIMOH\SOURCE\REPOS\2D\DEBUG\VC142.IDB
C:\USERS\TIMOH\SOURCE\REPOS\2D\DEBUG\MATH.OBJ
^C:\USERS\TIMOH\SOURCE\REPOS\2D\SOURCE.CPP
C:\USERS\TIMOH\SOURCE\REPOS\2D\DEBUG\VC142.PDB
C:\USERS\TIMOH\SOURCE\REPOS\2D\DEBUG\VC142.IDB
C:\USERS\TIMOH\SOURCE\REPOS\2D\DEBUG\SOURCE.OBJ
^C:\USERS\TIMOH\SOURCE\REPOS\2D\2D\SOURCE.CPP
C:\USERS\TIMOH\SOURCE\REPOS\2D\2D\DEBUG\VC142.PDB
C:\USERS\TIMOH\SOURCE\REPOS\2D\2D\DEBUG\VC142.IDB
C:\USERS\TIMOH\SOURCE\REPOS\2D\2D\DEBUG\SOURCE.OBJ
